{
	"version": "2.0.0",
	"tasks": [
		{
			"type": "xslt-js",
			"label": "xslt-js: Saxon-JS Transform (New)",
			"xsltFile": "${command:xslt-xpath.pickXsltFile}/files/films.xsl",
			"xmlSource": "${command:xslt-xpath.pickXmlSourceFile}/files/films.xml",
			"resultPath": "${workspaceFolder}/xsl-out/index.html",
			"group": {
				"kind": "build",
				"default": true
			},
			"problemMatcher": [
				"$saxon-xslt-js"
			]
		}
	]
}